{
    "name": "flare",
    "children": [
        {
            "name": "service 1",
            "children": [
                {
                    "name": "удовлетворенность",
                    "children": [
                        {
                         "name": "ЦА",
                         "children": [
                          {
                           "name": "Блок HR",
                           "children": [
                               {
                                   "name": "Уровень 3",
                                   "size": 312
                               },
                               {
                                   "name": "Уровень 3",
                                   "size": 614
                               },
                               {
                                   "name": "Уровень 3",
                                   "size": 338
                               },
                               {
                                   "name": "Уровень 3",
                                   "size": 74
                                   }
                              ]
                          },
                          {
                           "name": "Блок GR",
                           "children": [
                            {
                                "name": "Уровень 3",
                                "size": 3534
                           },
                            {
                                "name": "Уровень 3",
                                "size": 5731
                           },
                            {
                                "name": "Уровень 3",
                                "size": 7840
                           },
                            {
                                "name": "Уровень 3",
                                "size": 5914
                           },
                            {
                                "name": "Уровень 3",
                                "size": 3416
                           }
                           ]
                          },
                          {
                           "name": "Блок Риски",
                           "children": [
                            {"name": "Уровень 3", "size": 7074}
                           ]
                          }
                         ]
                        },
                        {
                         "name": "ТБ",
                         "children": [
                          {"name": "Уровень 2 - Банк", "size": 17010},
                          {"name": "Уровень 2 - Банк", "size": 5842},
                          {
                           "name": "Уровень 2 - Банк",
                           "children": [
                            {
                                "name": "Уровень 3 - Отделение",
                                "size": 1983
                               },
                            {
                                "name": "Уровень 3 - Отделение",
                                "size": 2047
                               },
                            {
                                "name": "Уровень 3 - Отделение",
                                "size": 1375
                               },
                            {
                                "name": "Уровень 3 - Отделение",
                                "size": 8746
                               },
                            {
                                "name": "Уровень 3 - Отделение",
                                "size": 2202
                               },
                            {
                                "name": "Уровень 3 - Отделение",
                                "size": 1382
                               },
                            {
                                "name": "Уровень 3 - Отделение",
                                "size": 1629
                               },
                            {
                                "name": "Уровень 3 - Отделение",
                                "size": 1675
                               },
                            {
                                "name": "Уровень 3 - Отделение",
                                "size": 204
                                }
                           ]
                          },
                          {
                              "name": "Уровень 2 - Банк",
                              "size": 1041
                           },
                          {
                              "name": "Уровень 2 - Банк",
                              "size": 5176
                           },
                          {
                              "name": "Уровень 2 - Банк",
                              "size": 449
                           },
                          {
                              "name": "Уровень 2 - Банк",
                              "size": 5593
                           },
                          {
                              "name": "Уровень 2 - Банк",
                              "size": 5534
                           },
                          {
                              "name": "Уровень 2 - Банк",
                              "size": 9201
                           },
                          {
                              "name": "Уровень 2 - Банк",
                              "size": 19975
                           },
                          {
                              "name": "Уровень 2 - Банк",
                              "size": 1116
                           },
                          {
                              "name": "Уровень 2 - Банк",
                              "size": 600
                              }
                         ]
                        },
                        {
                         "name": "ПЦП",
                         "children": [
                          {
                           "name": "Уровень 2",
                           "children": [
                            {
                                "name": "Уровень 3",
                                "size": 721
                           },
                            {
                                "name": "Уровень 3",
                                "size": 4294
                           },
                            {
                                "name": "Уровень 3",
                                "size": 9800
                           },
                            {
                                "name": "Уровень 3",
                                "size": 1314
                           },
                            {
                                "name": "Уровень 3",
                                "size": 2220
                               }
                           ]
                          },
                          {
                              "name": "Уровень 2",
                              "size": 1759
                           },
                          {
                              "name": "Уровень 2",
                              "size": 2165
                           },
                          {
                              "name": "Уровень 2",
                              "size": 586
                           },
                          {
                              "name": "Уровень 2",
                              "size": 3331
                           },
                          {
                              "name": "Уровень 2",
                              "size": 772
                           },
                          {
                              "name": "Уровень 2",
                              "size": 3322
                           }
                         ]
                        },
                        {
                         "name": "ДЗО",
                         "children": [
                          {
                              "name": "АНО",
                              "size": 8833
                           },
                          {
                              "name": "ЗАО",
                              "size": 1732
                           }
                         ]
                        }
                    ]
                },
                {
                    "name": "add question",
                    "children": [
                        {
                         "name": "ЦА",
                         "children": [
                          {
                           "name": "Блок HR",
                           "children": [
                               {
                                   "name": "Уровень 3",
                                   "size": 3812
                               },
                               {
                                   "name": "Уровень 3",
                                   "size": 6714
                               },
                               {
                                   "name": "Уровень 3",
                                   "size": 3938
                               },
                               {
                                   "name": "Уровень 3",
                                   "size": 74
                                   }
                              ]
                          },
                          {
                           "name": "Блок GR",
                           "children": [
                            {
                                "name": "Уровень 3",
                                "size": 3534
                           },
                            {
                                "name": "Уровень 3",
                                "size": 5731
                           },
                            {
                                "name": "Уровень 3",
                                "size": 7840
                           },
                            {
                                "name": "Уровень 3",
                                "size": 5914
                           },
                            {
                                "name": "Уровень 3",
                                "size": 3416
                           }
                           ]
                          },
                          {
                           "name": "Блок Риски",
                           "children": [
                            {"name": "Уровень 3", "size": 7074}
                           ]
                          }
                         ]
                        },
                        {
                         "name": "ТБ",
                         "children": [
                          {"name": "Уровень 2 - Банк", "size": 17010},
                          {"name": "Уровень 2 - Банк", "size": 5842},
                          {
                           "name": "Уровень 2 - Банк",
                           "children": [
                            {
                                "name": "Уровень 3 - Отделение",
                                "size": 1983
                               },
                            {
                                "name": "Уровень 3 - Отделение",
                                "size": 2047
                               },
                            {
                                "name": "Уровень 3 - Отделение",
                                "size": 1375
                               },
                            {
                                "name": "Уровень 3 - Отделение",
                                "size": 8746
                               },
                            {
                                "name": "Уровень 3 - Отделение",
                                "size": 2202
                               },
                            {
                                "name": "Уровень 3 - Отделение",
                                "size": 1382
                               },
                            {
                                "name": "Уровень 3 - Отделение",
                                "size": 1629
                               },
                            {
                                "name": "Уровень 3 - Отделение",
                                "size": 1675
                               },
                            {
                                "name": "Уровень 3 - Отделение",
                                "size": 204
                                }
                           ]
                          },
                          {
                              "name": "Уровень 2 - Банк",
                              "size": 1041
                           },
                          {
                              "name": "Уровень 2 - Банк",
                              "size": 5176
                           },
                          {
                              "name": "Уровень 2 - Банк",
                              "size": 449
                           },
                          {
                              "name": "Уровень 2 - Банк",
                              "size": 5593
                           },
                          {
                              "name": "Уровень 2 - Банк",
                              "size": 5534
                           },
                          {
                              "name": "Уровень 2 - Банк",
                              "size": 9201
                           },
                          {
                              "name": "Уровень 2 - Банк",
                              "size": 19975
                           },
                          {
                              "name": "Уровень 2 - Банк",
                              "size": 1116
                           },
                          {
                              "name": "Уровень 2 - Банк",
                              "size": 600
                              }
                         ]
                        },
                        {
                         "name": "ПЦП",
                         "children": [
                          {
                           "name": "Уровень 2",
                           "children": [
                            {
                                "name": "Уровень 3",
                                "size": 721
                           },
                            {
                                "name": "Уровень 3",
                                "size": 4294
                           },
                            {
                                "name": "Уровень 3",
                                "size": 9800
                           },
                            {
                                "name": "Уровень 3",
                                "size": 1314
                           },
                            {
                                "name": "Уровень 3",
                                "size": 2220
                               }
                           ]
                          },
                          {
                              "name": "Уровень 2",
                              "size": 1759
                           },
                          {
                              "name": "Уровень 2",
                              "size": 2165
                           },
                          {
                              "name": "Уровень 2",
                              "size": 586
                           },
                          {
                              "name": "Уровень 2",
                              "size": 3331
                           },
                          {
                              "name": "Уровень 2",
                              "size": 772
                           },
                          {
                              "name": "Уровень 2",
                              "size": 3322
                           }
                         ]
                        },
                        {
                         "name": "ДЗО",
                         "children": [
                          {
                              "name": "АНО",
                              "size": 8833
                           },
                          {
                              "name": "ЗАО",
                              "size": 1732
                           }
                         ]
                        }
                    ]
                },
                {
                    "name": "filter question",
                    "children": [
                        {
                         "name": "ЦА",
                         "children": [
                          {
                           "name": "Блок HR",
                           "children": [
                               {
                                   "name": "Уровень 3",
                                   "size": 3812
                               },
                               {
                                   "name": "Уровень 3",
                                   "size": 6714
                               },
                               {
                                   "name": "Уровень 3",
                                   "size": 3938
                               },
                               {
                                   "name": "Уровень 3",
                                   "size": 74
                                   }
                              ]
                          },
                          {
                           "name": "Блок GR",
                           "children": [
                            {
                                "name": "Уровень 3",
                                "size": 3534
                           },
                            {
                                "name": "Уровень 3",
                                "size": 5731
                           },
                            {
                                "name": "Уровень 3",
                                "size": 7840
                           },
                            {
                                "name": "Уровень 3",
                                "size": 5914
                           },
                            {
                                "name": "Уровень 3",
                                "size": 3416
                           }
                           ]
                          },
                          {
                           "name": "Блок Риски",
                           "children": [
                            {"name": "Уровень 3", "size": 7074}
                           ]
                          }
                         ]
                        },
                        {
                         "name": "ТБ",
                         "children": [
                          {"name": "Уровень 2 - Банк", "size": 17010},
                          {"name": "Уровень 2 - Банк", "size": 5842},
                          {
                           "name": "Уровень 2 - Банк",
                           "children": [
                            {
                                "name": "Уровень 3 - Отделение",
                                "size": 1983
                               },
                            {
                                "name": "Уровень 3 - Отделение",
                                "size": 2047
                               },
                            {
                                "name": "Уровень 3 - Отделение",
                                "size": 1375
                               },
                            {
                                "name": "Уровень 3 - Отделение",
                                "size": 8746
                               },
                            {
                                "name": "Уровень 3 - Отделение",
                                "size": 2202
                               },
                            {
                                "name": "Уровень 3 - Отделение",
                                "size": 1382
                               },
                            {
                                "name": "Уровень 3 - Отделение",
                                "size": 1629
                               },
                            {
                                "name": "Уровень 3 - Отделение",
                                "size": 1675
                               },
                            {
                                "name": "Уровень 3 - Отделение",
                                "size": 204
                                }
                           ]
                          },
                          {
                              "name": "Уровень 2 - Банк",
                              "size": 1041
                           },
                          {
                              "name": "Уровень 2 - Банк",
                              "size": 5176
                           },
                          {
                              "name": "Уровень 2 - Банк",
                              "size": 449
                           },
                          {
                              "name": "Уровень 2 - Банк",
                              "size": 5593
                           },
                          {
                              "name": "Уровень 2 - Банк",
                              "size": 5534
                           },
                          {
                              "name": "Уровень 2 - Банк",
                              "size": 9201
                           },
                          {
                              "name": "Уровень 2 - Банк",
                              "size": 19975
                           },
                          {
                              "name": "Уровень 2 - Банк",
                              "size": 1116
                           },
                          {
                              "name": "Уровень 2 - Банк",
                              "size": 600
                              }
                         ]
                        },
                        {
                         "name": "ПЦП",
                         "children": [
                          {
                           "name": "Уровень 2",
                           "children": [
                            {
                                "name": "Уровень 3",
                                "size": 721
                           },
                            {
                                "name": "Уровень 3",
                                "size": 4294
                           },
                            {
                                "name": "Уровень 3",
                                "size": 9800
                           },
                            {
                                "name": "Уровень 3",
                                "size": 1314
                           },
                            {
                                "name": "Уровень 3",
                                "size": 2220
                               }
                           ]
                          },
                          {
                              "name": "Уровень 2",
                              "size": 1759
                           },
                          {
                              "name": "Уровень 2",
                              "size": 2165
                           },
                          {
                              "name": "Уровень 2",
                              "size": 586
                           },
                          {
                              "name": "Уровень 2",
                              "size": 3331
                           },
                          {
                              "name": "Уровень 2",
                              "size": 772
                           },
                          {
                              "name": "Уровень 2",
                              "size": 3322
                           }
                         ]
                        },
                        {
                         "name": "ДЗО",
                         "children": [
                          {
                              "name": "АНО",
                              "size": 8833
                           },
                          {
                              "name": "ЗАО",
                              "size": 1732
                           }
                         ]
                        }
                    ]
                }
            ]
        },
        {
            "name": "service 2",
            "children": [
                {
                    "name": "filter question",
                    "children": [
                        {
                         "name": "ЦА",
                         "children": [
                          {
                           "name": "Блок HR",
                           "children": [
                               {
                                   "name": "Уровень 3",
                                   "size": 3812
                               },
                               {
                                   "name": "Уровень 3",
                                   "size": 6714
                               },
                               {
                                   "name": "Уровень 3",
                                   "size": 3938
                               },
                               {
                                   "name": "Уровень 3",
                                   "size": 74
                                   }
                              ]
                          },
                          {
                           "name": "Блок GR",
                           "children": [
                            {
                                "name": "Уровень 3",
                                "size": 3534
                           },
                            {
                                "name": "Уровень 3",
                                "size": 5731
                           },
                            {
                                "name": "Уровень 3",
                                "size": 7840
                           },
                            {
                                "name": "Уровень 3",
                                "size": 5914
                           },
                            {
                                "name": "Уровень 3",
                                "size": 3416
                           }
                           ]
                          },
                          {
                           "name": "Блок Риски",
                           "children": [
                            {"name": "Уровень 3", "size": 7074}
                           ]
                          }
                         ]
                        },
                        {
                         "name": "ТБ",
                         "children": [
                          {"name": "Уровень 2 - Банк", "size": 17010},
                          {"name": "Уровень 2 - Банк", "size": 5842},
                          {
                           "name": "Уровень 2 - Банк",
                           "children": [
                            {
                                "name": "Уровень 3 - Отделение",
                                "size": 1983
                               },
                            {
                                "name": "Уровень 3 - Отделение",
                                "size": 2047
                               },
                            {
                                "name": "Уровень 3 - Отделение",
                                "size": 1375
                               },
                            {
                                "name": "Уровень 3 - Отделение",
                                "size": 8746
                               },
                            {
                                "name": "Уровень 3 - Отделение",
                                "size": 2202
                               },
                            {
                                "name": "Уровень 3 - Отделение",
                                "size": 1382
                               },
                            {
                                "name": "Уровень 3 - Отделение",
                                "size": 1629
                               },
                            {
                                "name": "Уровень 3 - Отделение",
                                "size": 1675
                               },
                            {
                                "name": "Уровень 3 - Отделение",
                                "size": 204
                                }
                           ]
                          },
                          {
                              "name": "Уровень 2 - Банк",
                              "size": 1041
                           },
                          {
                              "name": "Уровень 2 - Банк",
                              "size": 5176
                           },
                          {
                              "name": "Уровень 2 - Банк",
                              "size": 449
                           },
                          {
                              "name": "Уровень 2 - Банк",
                              "size": 5593
                           },
                          {
                              "name": "Уровень 2 - Банк",
                              "size": 5534
                           },
                          {
                              "name": "Уровень 2 - Банк",
                              "size": 9201
                           },
                          {
                              "name": "Уровень 2 - Банк",
                              "size": 19975
                           },
                          {
                              "name": "Уровень 2 - Банк",
                              "size": 1116
                           },
                          {
                              "name": "Уровень 2 - Банк",
                              "size": 600
                              }
                         ]
                        },
                        {
                         "name": "ПЦП",
                         "children": [
                          {
                           "name": "Уровень 2",
                           "children": [
                            {
                                "name": "Уровень 3",
                                "size": 721
                           },
                            {
                                "name": "Уровень 3",
                                "size": 4294
                           },
                            {
                                "name": "Уровень 3",
                                "size": 9800
                           },
                            {
                                "name": "Уровень 3",
                                "size": 1314
                           },
                            {
                                "name": "Уровень 3",
                                "size": 2220
                               }
                           ]
                          },
                          {
                              "name": "Уровень 2",
                              "size": 1759
                           },
                          {
                              "name": "Уровень 2",
                              "size": 2165
                           },
                          {
                              "name": "Уровень 2",
                              "size": 586
                           },
                          {
                              "name": "Уровень 2",
                              "size": 3331
                           },
                          {
                              "name": "Уровень 2",
                              "size": 772
                           },
                          {
                              "name": "Уровень 2",
                              "size": 3322
                           }
                         ]
                        },
                        {
                         "name": "ДЗО",
                         "children": [
                          {
                              "name": "АНО",
                              "size": 8833
                           },
                          {
                              "name": "ЗАО",
                              "size": 1732
                           }
                         ]
                        }
                    ]
                },
                {
                    "name": "add question",
                    "children": [
                        {
                         "name": "ЦА",
                         "children": [
                          {
                           "name": "Блок HR",
                           "children": [
                               {
                                   "name": "Уровень 3",
                                   "size": 3812
                               },
                               {
                                   "name": "Уровень 3",
                                   "size": 614
                               },
                               {
                                   "name": "Уровень 3",
                                   "size": 393
                               },
                               {
                                   "name": "Уровень 3",
                                   "size": 7434
                                   }
                              ]
                          },
                          {
                           "name": "Блок GR",
                           "children": [
                            {
                                "name": "Уровень 3",
                                "size": 3534
                           },
                            {
                                "name": "Уровень 3",
                                "size": 5731
                           },
                            {
                                "name": "Уровень 3",
                                "size": 7840
                           },
                            {
                                "name": "Уровень 3",
                                "size": 5914
                           },
                            {
                                "name": "Уровень 3",
                                "size": 3416
                           }
                           ]
                          },
                          {
                           "name": "Блок Риски",
                           "children": [
                            {"name": "Уровень 3", "size": 7074}
                           ]
                          }
                         ]
                        },
                        {
                         "name": "ТБ",
                         "children": [
                          {"name": "Уровень 2 - Банк", "size": 17010},
                          {"name": "Уровень 2 - Банк", "size": 5842},
                          {
                           "name": "Уровень 2 - Банк",
                           "children": [
                            {
                                "name": "Уровень 3 - Отделение",
                                "size": 1983
                               },
                            {
                                "name": "Уровень 3 - Отделение",
                                "size": 2047
                               },
                            {
                                "name": "Уровень 3 - Отделение",
                                "size": 1375
                               },
                            {
                                "name": "Уровень 3 - Отделение",
                                "size": 8746
                               },
                            {
                                "name": "Уровень 3 - Отделение",
                                "size": 2202
                               },
                            {
                                "name": "Уровень 3 - Отделение",
                                "size": 1382
                               },
                            {
                                "name": "Уровень 3 - Отделение",
                                "size": 1629
                               },
                            {
                                "name": "Уровень 3 - Отделение",
                                "size": 1675
                               },
                            {
                                "name": "Уровень 3 - Отделение",
                                "size": 204
                                }
                           ]
                          },
                          {
                              "name": "Уровень 2 - Банк",
                              "size": 1041
                           },
                          {
                              "name": "Уровень 2 - Банк",
                              "size": 5176
                           },
                          {
                              "name": "Уровень 2 - Банк",
                              "size": 449
                           },
                          {
                              "name": "Уровень 2 - Банк",
                              "size": 5593
                           },
                          {
                              "name": "Уровень 2 - Банк",
                              "size": 5534
                           },
                          {
                              "name": "Уровень 2 - Банк",
                              "size": 9201
                           },
                          {
                              "name": "Уровень 2 - Банк",
                              "size": 19975
                           },
                          {
                              "name": "Уровень 2 - Банк",
                              "size": 1116
                           },
                          {
                              "name": "Уровень 2 - Банк",
                              "size": 600
                              }
                         ]
                        },
                        {
                         "name": "ПЦП",
                         "children": [
                          {
                           "name": "Уровень 2",
                           "children": [
                            {
                                "name": "Уровень 3",
                                "size": 721
                           },
                            {
                                "name": "Уровень 3",
                                "size": 4294
                           },
                            {
                                "name": "Уровень 3",
                                "size": 9800
                           },
                            {
                                "name": "Уровень 3",
                                "size": 1314
                           },
                            {
                                "name": "Уровень 3",
                                "size": 2220
                               }
                           ]
                          },
                          {
                              "name": "Уровень 2",
                              "size": 1759
                           },
                          {
                              "name": "Уровень 2",
                              "size": 2165
                           },
                          {
                              "name": "Уровень 2",
                              "size": 586
                           },
                          {
                              "name": "Уровень 2",
                              "size": 3331
                           },
                          {
                              "name": "Уровень 2",
                              "size": 772
                           },
                          {
                              "name": "Уровень 2",
                              "size": 3322
                           }
                         ]
                        },
                        {
                         "name": "ДЗО",
                         "children": [
                          {
                              "name": "АНО",
                              "size": 8833
                           },
                          {
                              "name": "ЗАО",
                              "size": 1732
                           }
                         ]
                        }
                    ]
                }
            ]
        },
        {
            "name": "service 3",
            "children": [
                {
                    "name": "удовлетворенность",
                    "children": [
                        {
                         "name": "ЦА",
                         "children": [
                          {
                           "name": "Блок HR",
                           "children": [
                               {
                                   "name": "Уровень 3",
                                   "size": 3812
                               },
                               {
                                   "name": "Уровень 3",
                                   "size": 6714
                               },
                               {
                                   "name": "Уровень 3",
                                   "size": 3938
                               },
                               {
                                   "name": "Уровень 3",
                                   "size": 74
                                   }
                              ]
                          },
                          {
                           "name": "Блок GR",
                           "children": [
                            {
                                "name": "Уровень 3",
                                "size": 3534
                           },
                            {
                                "name": "Уровень 3",
                                "size": 5731
                           },
                            {
                                "name": "Уровень 3",
                                "size": 7840
                           },
                            {
                                "name": "Уровень 3",
                                "size": 5914
                           },
                            {
                                "name": "Уровень 3",
                                "size": 3416
                           }
                           ]
                          },
                          {
                           "name": "Блок Риски",
                           "children": [
                            {"name": "Уровень 3", "size": 7074}
                           ]
                          }
                         ]
                        },
                        {
                         "name": "ТБ",
                         "children": [
                          {"name": "Уровень 2 - Банк", "size": 17010},
                          {"name": "Уровень 2 - Банк", "size": 5842},
                          {
                           "name": "Уровень 2 - Банк",
                           "children": [
                            {
                                "name": "Уровень 3 - Отделение",
                                "size": 1983
                               },
                            {
                                "name": "Уровень 3 - Отделение",
                                "size": 2047
                               },
                            {
                                "name": "Уровень 3 - Отделение",
                                "size": 1375
                               },
                            {
                                "name": "Уровень 3 - Отделение",
                                "size": 8746
                               },
                            {
                                "name": "Уровень 3 - Отделение",
                                "size": 2202
                               },
                            {
                                "name": "Уровень 3 - Отделение",
                                "size": 1382
                               },
                            {
                                "name": "Уровень 3 - Отделение",
                                "size": 1629
                               },
                            {
                                "name": "Уровень 3 - Отделение",
                                "size": 1675
                               },
                            {
                                "name": "Уровень 3 - Отделение",
                                "size": 204
                                }
                           ]
                          },
                          {
                              "name": "Уровень 2 - Банк",
                              "size": 1041
                           },
                          {
                              "name": "Уровень 2 - Банк",
                              "size": 5176
                           },
                          {
                              "name": "Уровень 2 - Банк",
                              "size": 449
                           },
                          {
                              "name": "Уровень 2 - Банк",
                              "size": 5593
                           },
                          {
                              "name": "Уровень 2 - Банк",
                              "size": 5534
                           },
                          {
                              "name": "Уровень 2 - Банк",
                              "size": 9201
                           },
                          {
                              "name": "Уровень 2 - Банк",
                              "size": 19975
                           },
                          {
                              "name": "Уровень 2 - Банк",
                              "size": 1116
                           },
                          {
                              "name": "Уровень 2 - Банк",
                              "size": 600
                              }
                         ]
                        },
                        {
                         "name": "ПЦП",
                         "children": [
                          {
                           "name": "Уровень 2",
                           "children": [
                            {
                                "name": "Уровень 3",
                                "size": 721
                           },
                            {
                                "name": "Уровень 3",
                                "size": 4294
                           },
                            {
                                "name": "Уровень 3",
                                "size": 9800
                           },
                            {
                                "name": "Уровень 3",
                                "size": 1314
                           },
                            {
                                "name": "Уровень 3",
                                "size": 2220
                               }
                           ]
                          },
                          {
                              "name": "Уровень 2",
                              "size": 1759
                           },
                          {
                              "name": "Уровень 2",
                              "size": 2165
                           },
                          {
                              "name": "Уровень 2",
                              "size": 586
                           },
                          {
                              "name": "Уровень 2",
                              "size": 3331
                           },
                          {
                              "name": "Уровень 2",
                              "size": 772
                           },
                          {
                              "name": "Уровень 2",
                              "size": 3322
                           }
                         ]
                        },
                        {
                         "name": "ДЗО",
                         "children": [
                          {
                              "name": "АНО",
                              "size": 8833
                           },
                          {
                              "name": "ЗАО",
                              "size": 1732
                           }
                         ]
                        }
                    ]
                }
            ]
        }
    ]
   }